[gd_scene load_steps=2 format=2]

[ext_resource path="res://InventoryList.gd" type="Script" id=1]

[node name="InventoryList" type="VBoxContainer"]
anchor_right = 1.0
anchor_bottom = 1.0
script = ExtResource( 1 )
__meta__ = {
"_edit_use_anchors_": false
}
inventory_contents = {
"first item": 2,
"second item": 3
}
inventory_array = null
