[gd_scene load_steps=5 format=2]

[ext_resource path="res://icon.png" type="Texture" id=1]
[ext_resource path="res://DaisyChain.tscn" type="PackedScene" id=2]
[ext_resource path="res://TestChainIcon.gd" type="Script" id=3]
[ext_resource path="res://LinearLighting.tres" type="Material" id=4]

[node name="Node2D" type="Node2D"]

[node name="icon" type="Sprite" parent="."]
modulate = Color( 2, 2, 2, 1 )
material = ExtResource( 4 )
position = Vector2( 801, 181.5 )
scale = Vector2( 6.96875, 5.67188 )
texture = ExtResource( 1 )
script = ExtResource( 3 )

[node name="Node2D" parent="." instance=ExtResource( 2 )]
debug = true
[connection signal="setup_complete" from="Node2D" to="icon" method="_on_Node2D_setup_complete"]
