[gd_resource type="AtlasTexture" load_steps=2 format=2]

[ext_resource path="res://Dung_tileset.png" type="Texture" id=1]

[resource]
atlas = ExtResource( 1 )
region = Rect2( 132, 12, 48, 48 )
filter_clip = true
