[gd_scene load_steps=3 format=2]

[ext_resource path="res://WallMap/UpperWallMap.gd" type="Script" id=1]
[ext_resource path="res://WallMap/WallMap.gd" type="Script" id=2]

[node name="WallMap" type="TileMap"]
scale = Vector2( 0.5, 0.5 )
format = 1
script = ExtResource( 2 )

[node name="UpperWallMap" type="TileMap" parent="."]
self_modulate = Color( 0.5, 0.5, 0.5, 1 )
scale = Vector2( 3, 3 )
format = 1
script = ExtResource( 1 )
[connection signal="settings_changed" from="." to="UpperWallMap" method="_on_WallMap_settings_changed"]
